<?xml version="1.0" standalone="no"?>
<!DOCTYPE svg PUBLIC "-//W3C//DTD SVG 1.1//EN" "http://www.w3.org/Graphics/SVG/1.1/DTD/svg11.dtd" >
<!--
2018-4-12: Created with FontForge (http://fontforge.org)
-->
<svg xmlns="http://www.w3.org/2000/svg" xmlns:xlink="http://www.w3.org/1999/xlink" version="1.1">
<metadata>
Created by FontForge 20160405 at Thu Apr 12 17:34:05 2018
 By Apache
Copyright (c) 2018, Apache
</metadata>
<defs>
<font id="Flaticon" horiz-adv-x="512" >
  <font-face 
    font-family="Flaticon"
    font-weight="400"
    font-stretch="normal"
    units-per-em="512"
    panose-1="2 0 5 3 0 0 0 0 0 0"
    ascent="448"
    descent="-64"
    bbox="0 -64 512 448"
    underline-thickness="25.6"
    underline-position="-51.2"
    unicode-range="U+0020-F102"
  />
    <missing-glyph />
    <glyph glyph-name="space" unicode=" " horiz-adv-x="200" 
 />
    <glyph glyph-name="uniF102" unicode="&#xf102;" 
d="M487.11 43.4688h24.8896v-44.7412l-37.8887 -37.8887h-436.223l-37.8887 37.8887v44.7412h24.7891v280.738h107.115v6.44922l23.0762 5.74414c0.907227 2.7207 2.11621 5.33984 3.3252 8.06055l-12.2939 20.4561l44.1367 44.1367l20.4561 -12.2939
c2.7207 1.20898 5.34082 2.31738 8.06152 3.3252l5.74316 23.0762h62.4766l5.74316 -23.0762c2.7207 -0.907227 5.34082 -2.11621 8.06152 -3.3252l20.4561 12.2939l44.1357 -44.1367l-12.293 -20.4561c1.20898 -2.7207 2.31738 -5.33984 3.3252 -8.06055l23.0752 -5.74414
v-6.44922h107.721v-280.738zM148.128 317.758v-36.5781l19.4482 -4.83691l9.37207 -22.5723l-10.2783 -17.2314l25.8965 -25.8975l17.2314 10.2783l22.5723 -9.37109l4.83691 -19.4482h36.6797l4.83594 19.4482l22.5723 9.37109l17.1309 -10.3789l25.998 25.8975
l-10.2783 17.2314l9.37109 22.5713l19.4482 4.83691v36.6797l-19.4482 4.83691l-9.37109 22.5723l10.2783 17.2314l-25.998 25.8965l-17.1309 -10.2783l-22.5723 9.37207l-4.83594 19.4482h-36.6797l-4.83691 -19.4482l-22.5723 -9.37207l-17.2314 10.2783
l-25.8965 -25.8965l10.3789 -17.2314l-9.37207 -22.5723l-19.4473 -4.83691h-0.101562zM154.779 262.437l-23.0762 5.74414v6.44922h-57.8408v-198.109h363.167v198.109h-57.8408v-6.44922l-23.0762 -5.74414c-0.90625 -2.7207 -2.11621 -5.34082 -3.3252 -8.06152
l12.2939 -20.4561l-44.1367 -44.1357l-20.4551 12.2939c-2.7207 -1.20996 -5.34082 -2.31836 -8.06152 -3.32617l-5.74414 -23.0752h-62.4756l-5.74414 23.0752c-2.7207 0.907227 -5.34082 2.11621 -8.06152 3.32617l-20.4551 -12.2939l-44.1367 44.1357l12.2939 20.4561
c-1.20898 2.7207 -2.31738 5.34082 -3.3252 8.06152zM41.3145 307.682v-264.213h165.158v-16.5264h99.0547v16.5264h165.058v264.213h-91.1953v-16.5264h74.2656v-231.161h-396.318v231.161h74.3662v16.5264h-90.3887zM495.474 5.58008v21.3623h-173.421v-16.5254h-132.105
v16.5254h-173.421v-21.3623l28.2148 -28.2148h422.417l28.2148 28.2148h0.100586zM346.741 -6.10938v16.5264h99.0547v-16.5264h-99.0547zM255.547 241.679c-31.8428 0 -57.8408 25.8965 -57.8408 57.8398s25.998 57.8408 57.8408 57.8408
c31.9434 0 57.8398 -25.998 57.8398 -57.8408c0 -31.9434 -25.998 -57.8398 -57.8398 -57.8398zM255.547 340.733c-22.7734 0 -41.3154 -18.542 -41.3154 -41.3154s18.542 -41.3145 41.3154 -41.3145s41.3145 18.541 41.3145 41.3145s-18.541 41.3154 -41.3145 41.3154z" />
    <glyph glyph-name="uniF100" unicode="&#xf100;" 
d="M340.472 412.966c3.33789 -3.33887 3.33789 -8.75195 0 -12.0908c-3.33887 -3.33789 -8.75195 -3.33789 -12.0908 0c-0.0302734 0.03125 -0.0625 0.0634766 -0.09375 0.09375c-39.9746 39.9238 -104.745 39.8809 -144.668 -0.09375l-0.0253906 0.0253906
c-3.30664 -3.19336 -8.54883 -3.19336 -11.8555 0c-3.38965 3.27344 -3.4834 8.67578 -0.209961 12.0654c0.0517578 0.0507812 0.102539 0.102539 0.15332 0.15332c46.6523 46.5674 122.223 46.499 168.79 -0.15332zM316.299 380.261
c1.59863 -1.59961 2.49805 -3.76855 2.49805 -6.03027c0.000976562 -4.71289 -3.81836 -8.53418 -8.53027 -8.53516c-2.26367 0 -4.43262 0.900391 -6.03223 2.5c-0.0546875 0.0546875 -0.109375 0.109375 -0.163086 0.164062
c-26.6396 26.5479 -69.7568 26.4756 -96.3057 -0.164062c-0.0693359 -0.0712891 -0.138672 -0.140625 -0.209961 -0.209961c-3.38965 -3.27344 -8.79199 -3.17871 -12.0645 0.209961c-3.27344 3.38965 -3.17969 8.79199 0.209961 12.0654
c0.0566406 0.0576172 0.114258 0.114258 0.171875 0.171875c33.3018 33.207 87.2188 33.1299 120.426 -0.171875zM292.203 347.701c3.21875 -3.29004 3.24902 -8.54004 0.0673828 -11.8672c-3.25684 -3.4043 -8.6582 -3.52344 -12.0635 -0.266602
c-13.5674 12.8828 -34.8467 12.8828 -48.4141 0c-0.0644531 -0.0673828 -0.131836 -0.131836 -0.199219 -0.197266c-3.40527 -3.25684 -8.80664 -3.1377 -12.0635 0.266602c-3.25781 3.4043 -3.1377 8.80664 0.266602 12.0645v0c20.0342 19.8984 52.3721 19.8984 72.4062 0z
M511.975 217.572c-0.0449219 -10.8086 -6.87402 -20.4248 -17.0654 -24.0283v-189.284h17.0654v-25.5977c-0.0283203 -23.5498 -19.1133 -42.6348 -42.6631 -42.6621h-426.623c-23.5498 0.0273438 -42.6348 19.1123 -42.6631 42.6621v25.5977h17.0654v281.572
c0 14.1367 11.46 25.5967 25.5977 25.5967h315.701v110.923c0 14.1367 11.46 25.5977 25.5977 25.5977h102.39c14.1377 0 25.5977 -11.4609 25.5977 -25.5977v-204.779zM383.987 430.884c-4.71191 0 -8.53223 -3.82031 -8.53223 -8.53223h119.454
c0 4.71191 -3.82031 8.53223 -8.53223 8.53223h-102.39zM375.455 405.286v-162.117h119.454v162.117h-119.454zM383.987 191.975c-14.1377 0 -25.5977 11.46 -25.5977 25.5977v42.6621h-290.104v-221.845h375.43v153.585h-59.7275zM34.1553 285.832v-281.572h179.183
v-8.53223c0 -4.71191 3.82031 -8.53223 8.53223 -8.53223h59.7275c4.71191 0 8.53223 3.82031 8.53223 8.53223v8.53223h187.715v187.715h-17.0654v-170.649h-409.559v255.974h307.169v17.0654h-315.701c-4.71289 0 -8.5332 -3.82031 -8.5332 -8.53223zM494.909 -21.3379
v8.5332h-189.174c-3.62891 -10.2197 -13.293 -17.0527 -24.1377 -17.0654h-59.7275c-10.8447 0.0126953 -20.5088 6.8457 -24.1387 17.0654h-180.641v-8.5332c0 -14.1367 11.46 -25.5967 25.5977 -25.5967h426.623c14.1377 0 25.5977 11.46 25.5977 25.5967z
M486.377 209.039c4.71191 0 8.53223 3.82031 8.53223 8.5332v8.53223h-119.454v-8.53223c0 -4.71289 3.82031 -8.5332 8.53223 -8.5332h102.39zM247.468 140.779v17.0654h17.0645v-17.0654h-17.0645zM281.598 140.779v17.0654h17.0645v-17.0654h-17.0645zM213.338 140.779
v17.0654h17.0645v-17.0654h-17.0645zM426.649 311.429v17.0654h17.0654v-17.0654h-17.0654zM460.779 311.429v17.0654h17.0654v-17.0654h-17.0654zM392.52 311.429v17.0654h17.0654v-17.0654h-17.0654z" />
    <glyph glyph-name="uniF101" unicode="&#xf101;" 
d="M512 80.835c0 -18.5664 -15.1055 -33.6699 -33.6699 -33.6699h-75.7861l5.84375 -43.8252h87.0439c9.13672 0 16.5684 -7.43164 16.5684 -16.5674v-17.1025c0 -9.13574 -7.43164 -16.5684 -16.5684 -16.5684h-478.863c-9.13672 0 -16.5684 7.43262 -16.5684 16.5684
v17.1025c0 9.13574 7.43164 16.5674 16.5684 16.5674h18.2246c-5.71387 7.20312 -9.13965 16.3008 -9.13965 26.1885v99.5059c0 15.6299 10.0371 29.2188 24.9746 33.8154l59.96 18.4492c2.39258 0.735352 4 2.91211 4 5.41406v22.625l-2.91602 2.42969
c-6.57227 5.47754 -10.9346 13.1455 -12.2861 21.5918l-0.583008 3.6416h-3.5625c-11.9658 0 -21.6992 9.73535 -21.6992 21.6992v13.6816c0 7.29102 3.625 13.7383 9.15723 17.6748c-0.902344 1.78809 -1.56934 3.70605 -1.94629 5.71484
c-8.58301 5.05859 -14.0518 14.3242 -14.0518 24.4961c0 4.80469 1.23633 9.49902 3.55469 13.6826c-2.31836 4.18262 -3.55469 8.87695 -3.55469 13.6816c0 10.1299 5.42773 19.3145 13.8418 24.376c-0.107422 0.992188 -0.160156 1.98926 -0.160156 2.98828
c0 14.4092 10.7344 26.3594 24.626 28.2705c4.59961 7.73047 12.6191 12.9111 21.6299 13.8105c5.64941 4.52344 12.6055 6.98047 19.9082 6.98047c0.97168 0 1.94727 -0.0488281 2.93652 -0.146484c6.08496 4.53125 13.4072 6.98828 21.0068 6.98828
c7.59863 0 14.9219 -2.45703 21.0059 -6.98828c0.988281 0.0976562 1.96289 0.146484 2.93555 0.146484c7.28418 0 14.3535 -2.55859 20.0127 -7.14062c1.31543 0.200195 2.62988 0.299805 3.93066 0.299805c10.1318 0 19.3652 -5.42578 24.4365 -13.9492
c13.8926 -1.91211 24.626 -13.8623 24.626 -28.2715c0 -1 -0.0527344 -1.99609 -0.15918 -2.98828c8.41504 -5.06152 13.8418 -14.2461 13.8418 -24.376c0 -4.80469 -1.23828 -9.49902 -3.55469 -13.6816c2.31738 -4.18359 3.55469 -8.87793 3.55469 -13.6826
c0 -10.1719 -5.46973 -19.4375 -14.0508 -24.4961c-0.676758 -3.59863 -2.25684 -6.91895 -4.52148 -9.69043c3.05273 -3.73926 4.88965 -8.50684 4.88965 -13.7002v-3.95508h210.894c18.5645 0 33.6699 -15.1035 33.6699 -33.6699v-153.921zM95.2383 253.034h0.998047
l-3.87305 24.2012c-1.66211 -0.989258 -2.79004 -2.78418 -2.79004 -4.85449v-13.6816c0 -3.12402 2.54199 -5.66504 5.66504 -5.66504zM96.4209 299.507c0.103516 -2.43359 1.80762 -4.54688 4.21289 -5.18652c0.256836 -0.0683594 7.92285 -0.240234 7.92285 -0.240234
l4.60938 27.6631c0.681641 4.08984 4.37988 6.99121 8.50488 6.67578c0.37207 -0.0283203 0.739258 -0.0732422 1.10352 -0.123047l0.046875 -0.00585938c4.10645 0.0732422 7.90625 2.16016 10.1982 5.61621c1.48535 2.2373 3.99414 3.58496 6.68164 3.58496
s5.19531 -1.34766 6.68066 -3.58594c2.33398 -3.51855 6.22949 -5.61816 10.4219 -5.61816c4.19434 0 8.08887 2.09961 10.4219 5.61816c1.48535 2.2373 3.99414 3.58496 6.68164 3.58496s5.19434 -1.34766 6.68066 -3.58594
c2.33398 -3.51855 6.22949 -5.61816 10.4219 -5.61816c4.19434 0 8.08887 2.09961 10.4219 5.61816c1.48535 2.2373 3.99414 3.58496 6.68164 3.58496s5.19434 -1.34766 6.68066 -3.58594c2.29102 -3.45605 6.09082 -5.54297 10.1992 -5.61621l0.046875 0.00585938
c0.366211 0.0498047 0.729492 0.0947266 1.10156 0.123047c4.12598 0.30957 7.82422 -2.58496 8.50684 -6.67578l4.60938 -27.6602s7.66699 0.172852 7.92383 0.241211c2.40723 0.639648 4.11133 2.75098 4.21777 5.18457
c-0.0341797 0.243164 -0.0644531 0.487305 -0.0859375 0.733398c-0.333008 3.66406 1.87109 7.08496 5.3457 8.2959c5.04004 1.75488 8.42578 6.4707 8.42578 11.7324c0 3.87695 -1.77539 6.66211 -3.26465 8.31641c-2.74707 3.0498 -2.74707 7.68262 0 10.7324
c1.48828 1.65332 3.26465 4.43848 3.26465 8.31543c0 5.58594 -3.80859 10.5186 -9.26074 11.9941c-2.21094 0.597656 -4.06055 2.11328 -5.08203 4.16309c-1.02246 2.0498 -1.11816 4.43848 -0.264648 6.56348c0.614258 1.52637 0.925781 3.08984 0.925781 4.64258
c0 6.79785 -5.45312 12.3477 -12.2148 12.5029c-0.382812 -0.0498047 -0.704102 -0.0859375 -1.03125 -0.105469c-3.58691 -0.213867 -6.86816 1.97852 -8.04785 5.36523c-1.75684 5.03906 -6.47266 8.4248 -11.7344 8.4248
c-1.18262 0 -2.39648 -0.214844 -3.70605 -0.655273c-3.01953 -1.01855 -6.35742 -0.151367 -8.49902 2.20996c-3.09277 3.40918 -7.26172 5.28711 -11.7393 5.28711c-1.08105 0 -2.22656 -0.139648 -3.50293 -0.427734
c-2.59277 -0.583984 -5.30859 0.15625 -7.24707 1.97656c-3.63379 3.41211 -8.31836 5.29102 -13.1924 5.29102s-9.55957 -1.87891 -13.1943 -5.29004c-1.93848 -1.82031 -4.65625 -2.55957 -7.24707 -1.97656c-1.27539 0.287109 -2.42188 0.427734 -3.50293 0.427734
c-4.17578 0 -8.13184 -1.62402 -11.1377 -4.57227c-1.53418 -1.50488 -3.58789 -2.31934 -5.75488 -2.29297c-0.157227 0.00195312 -0.313477 0.00878906 -0.46875 0.0195312c-5.15723 -0.108398 -9.74805 -3.46484 -11.4746 -8.42285
c-1.17969 -3.3877 -4.45801 -5.57129 -8.04785 -5.36523c-0.349609 0.0214844 -0.692383 0.0595703 -1.0332 0.105469c-6.76172 -0.15625 -12.2139 -5.70508 -12.2139 -12.5029c0 -1.55273 0.310547 -3.11621 0.925781 -4.64355
c0.853516 -2.125 0.756836 -4.51367 -0.264648 -6.5625c-1.02051 -2.0498 -2.87012 -3.56445 -5.08008 -4.16309c-5.4541 -1.47559 -9.26172 -6.4082 -9.26172 -11.9941c0 -3.87695 1.77441 -6.66211 3.26465 -8.31543
c2.74707 -3.05078 2.74707 -7.68262 0.000976562 -10.7324c-1.48926 -1.6543 -3.26465 -4.43945 -3.26465 -8.31641c0 -5.26172 3.38574 -9.97656 8.42578 -11.7324c3.47363 -1.21094 5.67871 -4.63184 5.3457 -8.2959
c-0.0214844 -0.246094 -0.0517578 -0.488281 -0.0839844 -0.731445zM251.404 272.381c0 2.07031 -1.12793 3.86523 -2.79004 4.85449l-1.41016 -8.80957h4.2002v3.95508zM108.47 278.046l6.74414 -42.1533c0.739258 -4.61816 3.12402 -8.81055 6.71777 -11.8057
l27.457 -22.8809c2.24316 -1.87012 5.08594 -2.89941 8.00586 -2.89941h26.1855c1.55859 0 3.10059 0.306641 4.54395 0.869141v35.5801c0 18.5654 15.1035 33.6699 33.6699 33.6699h9.17188l1.71289 10.71c-4.67285 1.88672 -8.19824 6.07422 -9.07324 11.3242
l-3.71484 22.29c-4.29199 0.813477 -8.31445 2.59766 -11.7783 5.2002c-4.86719 -3.6543 -10.8369 -5.69922 -17.1025 -5.69922s-12.2344 2.04395 -17.1016 5.69922c-4.86719 -3.6543 -10.8369 -5.69922 -17.1025 -5.69922s-12.2344 2.04395 -17.1016 5.69922
c-3.46484 -2.60156 -7.4873 -4.38867 -11.7793 -5.2002l-3.71387 -22.2891c-1.20117 -7.19336 -7.36426 -12.415 -14.6562 -12.415h-1.08496zM115.302 165.974l-10.0293 -3.08691c16.6045 -20.7539 41.8242 -32.9893 68.5674 -32.9893
c4.7998 0 9.58203 0.397461 14.2861 1.16602v51.584c-1.49902 -0.244141 -3.01855 -0.374023 -4.54395 -0.374023h-26.1846c-6.66406 0 -13.1523 2.34863 -18.2715 6.61426l-8.50586 7.08887v-9.26367c0 -9.58496 -6.15527 -17.9199 -15.3184 -20.7393zM41.6865 129.035
v-99.5059c0 -14.4404 11.748 -26.1885 26.1885 -26.1885h77.4941v26.7227h-51.8408c-9.13672 0 -16.5684 7.43164 -16.5684 16.5674v51.3076c0 4.42773 3.58887 8.0166 8.0166 8.0166c4.42871 0 8.01758 -3.58984 8.01758 -8.0166v-51.3076
c0 -0.294922 0.239258 -0.53418 0.53418 -0.53418h85.5117c18.5654 0 33.6699 -15.1035 33.6699 -33.6699v-9.08594h43.8516c-0.0117188 0.176758 -0.0263672 0.353516 -0.0263672 0.53418v43.29h-34.7393c-18.5654 0 -33.6699 15.1035 -33.6699 33.6699v34.0176
c-4.72168 -0.650391 -9.49707 -0.987305 -14.2861 -0.987305c-33.7217 0 -65.3936 16.4443 -84.8486 44.0137l-33.6475 -10.3516c-8.16797 -2.51465 -13.6572 -9.94531 -13.6572 -18.4922zM196.676 12.4258c0 9.72559 -7.91211 17.6377 -17.6357 17.6357h-17.6367v-26.7217
h35.2725v9.08594zM495.432 -12.6934h-478.863c-0.294922 0 -0.53418 -0.238281 -0.53418 -0.533203v-17.1025c0 -0.294922 0.239258 -0.53418 0.53418 -0.53418h478.863c0.294922 0 0.53418 0.239258 0.53418 0.53418v17.1025
c0 0.294922 -0.239258 0.533203 -0.53418 0.533203zM272.541 3.33984v-0.000976562h19.1953l5.84375 43.8252h-25.0117v-43.29c0 -0.179688 -0.015625 -0.357422 -0.0273438 -0.53418zM307.912 3.33984h84.3018l-13.9141 104.35
c-0.598633 4.49512 -4.4707 7.88477 -9.00586 7.88477h-38.4619c-4.53613 0 -8.40723 -3.38965 -9.00684 -7.88477zM401.37 63.1982h76.96c9.72461 0 17.6367 7.91211 17.6367 17.6367v153.921c0 9.72559 -7.91211 17.6367 -17.6367 17.6367h-256.535
c-9.72461 0 -17.6367 -7.91113 -17.6367 -17.6367v-153.921c0 -9.72461 7.91211 -17.6367 17.6367 -17.6367h76.96c0.324219 0 0.642578 -0.0253906 0.955078 -0.0625l6.22266 46.6719c1.65723 12.4277 12.3623 21.7998 24.8994 21.7998h38.4619
c12.5371 0 23.2412 -9.37207 24.8984 -21.7998l6.22266 -46.6719c0.31543 0.0371094 0.630859 0.0625 0.955078 0.0625zM350.063 200.017c13.8496 0 25.1182 -11.2686 25.1182 -25.1182c0 -13.8516 -11.2676 -25.1191 -25.1182 -25.1191
c-13.8516 0 -25.1191 11.2676 -25.1191 25.1191c0 13.8506 11.2676 25.1182 25.1191 25.1182zM350.063 165.812c5.00977 0 9.08496 4.07617 9.08594 9.08691c0 5.00977 -4.07617 9.08594 -9.08594 9.08594c-5.01074 0 -9.08691 -4.07617 -9.08691 -9.08594
c0 -5.01074 4.07617 -9.08691 9.08691 -9.08691z" />
  </font>
</defs></svg>
